newmtl initialShadingGroup
illum 4
Kd 0.00 0.00 0.00
Ka 0.00 0.00 0.00
Tf 1.00 1.00 1.00
Ni 1.00
newmtl lambert3SG
illum 4
Kd 0.00 0.00 0.00
Ka 0.00 0.00 0.00
Tf 1.00 1.00 1.00
Ni 1.00
newmtl lambert4SG
illum 4
Kd 1.00 1.00 1.00
Ka 0.00 0.00 0.00
Tf 1.00 1.00 1.00
Ni 1.00
newmtl pasted__lambert3SG
illum 4
Kd 1.00 0.00 0.02
Ka 0.00 0.00 0.00
Tf 1.00 1.00 1.00
Ni 1.00
newmtl pasted__lambert4SG
illum 4
Kd 1.00 0.99 0.00
Ka 0.00 0.00 0.00
Tf 1.00 1.00 1.00
Ni 1.00
newmtl pasted__lambert5SG
illum 4
Kd 0.89 0.63 0.07
Ka 0.00 0.00 0.00
Tf 1.00 1.00 1.00
Ni 1.00
newmtl pasted__lambert6SG
illum 4
Kd 0.00 0.00 0.00
Ka 0.00 0.00 0.00
Tf 1.00 1.00 1.00
map_Kd angrybirds face2.png
Ni 1.00
newmtl pasted__lambert7SG
illum 4
Kd 1.00 0.03 0.00
Ka 0.00 0.00 0.00
Tf 1.00 1.00 1.00
Ni 1.00
